\relax 
\providecommand\hyper@newdestlabel[2]{}
\citation{Pozo}
\citation{Pozo}
\@writefile{toc}{\setlength  {\cftchapterindent }{\cftlastnumwidth } \setlength  {\cftchapternumwidth }{2em}}
\@writefile{toc}{\contentsline {chapter}{Introdu\IeC {\c c}\IeC {\~a}o}{11}{chapter*.8}}
\@writefile{brf}{\backcite{Pozo}{{11}{(document)}{Doc-Start}}}
\citation{Pozo}
\citation{Claxton}
\citation{Claxton}
\citation{Pozo}
\citation{Pozo}
\@writefile{brf}{\backcite{Pozo}{{12}{(document)}{Doc-Start}}}
\@writefile{brf}{\backcite{Pozo}{{12}{(document)}{Doc-Start}}}
\@writefile{brf}{\backcite{Claxton}{{12}{(document)}{Doc-Start}}}
\@writefile{brf}{\backcite{Claxton}{{12}{(document)}{Doc-Start}}}
\@writefile{brf}{\backcite{Pozo}{{12}{(document)}{Doc-Start}}}
\@writefile{brf}{\backcite{Pozo}{{12}{(document)}{Doc-Start}}}
\citation{Weintrop2016}
\@writefile{brf}{\backcite{Weintrop2016}{{13}{(document)}{Doc-Start}}}
\@setckpt{elementos-textuais/introducao}{
\setcounter{page}{14}
\setcounter{equation}{0}
\setcounter{enumi}{3}
\setcounter{enumii}{0}
\setcounter{enumiii}{0}
\setcounter{enumiv}{0}
\setcounter{footnote}{1}
\setcounter{mpfootnote}{0}
\setcounter{@memmarkcntra}{-1}
\setcounter{storedpagenumber}{1}
\setcounter{book}{0}
\setcounter{part}{0}
\setcounter{chapter}{0}
\setcounter{section}{0}
\setcounter{subsection}{0}
\setcounter{subsubsection}{0}
\setcounter{paragraph}{0}
\setcounter{subparagraph}{0}
\setcounter{@ppsavesec}{0}
\setcounter{@ppsaveapp}{0}
\setcounter{vslineno}{0}
\setcounter{poemline}{0}
\setcounter{modulo@vs}{0}
\setcounter{memfvsline}{0}
\setcounter{verse}{0}
\setcounter{chrsinstr}{0}
\setcounter{poem}{0}
\setcounter{newflo@tctr}{4}
\setcounter{@contsubnum}{0}
\setcounter{maxsecnumdepth}{4}
\setcounter{sidefootnote}{0}
\setcounter{pagenote}{0}
\setcounter{pagenoteshadow}{0}
\setcounter{memfbvline}{0}
\setcounter{bvlinectr}{0}
\setcounter{cp@cntr}{0}
\setcounter{ism@mctr}{0}
\setcounter{xsm@mctr}{0}
\setcounter{csm@mctr}{0}
\setcounter{ksm@mctr}{0}
\setcounter{xksm@mctr}{0}
\setcounter{cksm@mctr}{0}
\setcounter{msm@mctr}{0}
\setcounter{xmsm@mctr}{0}
\setcounter{cmsm@mctr}{0}
\setcounter{bsm@mctr}{0}
\setcounter{workm@mctr}{0}
\setcounter{sheetsequence}{15}
\setcounter{lastsheet}{67}
\setcounter{lastpage}{66}
\setcounter{figure}{0}
\setcounter{lofdepth}{1}
\setcounter{table}{0}
\setcounter{lotdepth}{1}
\setcounter{Item}{3}
\setcounter{Hfootnote}{1}
\setcounter{memhycontfloat}{0}
\setcounter{Hpagenote}{0}
\setcounter{bookmark@seq@number}{0}
\setcounter{FBcaption@count}{0}
\setcounter{abntex@bookmarkcounter}{7}
\setcounter{alineasi}{0}
\setcounter{alineasii}{0}
\setcounter{subalineasi}{0}
\setcounter{incisosi}{0}
\setcounter{lstnumber}{1}
\setcounter{ContinuedFloat}{0}
\setcounter{subfigure}{0}
\setcounter{subtable}{0}
\setcounter{parentequation}{0}
\setcounter{r@tfl@t}{0}
\setcounter{ABCIaux}{0}
\setcounter{ABCImax}{0}
\setcounter{lips@count}{0}
\setcounter{section@level}{0}
\setcounter{lstlisting}{0}
}
